Spreadsheet Munging Strategies
…
all_tables <- bind_rows("Table 1" = table_1, "Table 2" = table_2, .id = "sheet")
all_tables

## # A tibble: 1,176 x 7
##    sheet   state           population    response     `%`    no. territory
##    <chr>   <chr>           <chr>         <chr>      <dbl>  <dbl> <chr>    
##  1 Table 1 New South Wales Eligible Par… Non-respo…  20.5 1.07e6 <NA>     
##  2 Table 1 New South Wales Eligible Par… Response …  79.2 4.11e6 <NA>     
##  3 Table 1 New South Wales Eligible Par… Response …   0.2 1.10e4 <NA>     
##  4 Table 1 New South Wales Eligible Par… Total      100   5.19e6 <NA>     
##  5 Table 1 New South Wales Response cle… No          42.2 1.74e6 <NA>     
##  6 Table 1 New South Wales Response cle… Total      100   4.11e6 <NA>     
##  7 Table 1 New South Wales Response cle… Yes         57.8 2.37e6 <NA>     
##  8 Table 1 Victoria        Eligible Par… Non-respo…  18.3 7.44e5 <NA>     
##  9 Table 1 Victoria        Eligible Par… Response …  81.4 3.31e6 <NA>     
## 10 Table 1 Victoria        Eligible Par… Response …   0.3 1.10e4 <NA>     
## # ... with 1,166 more rows
…
table_1

## # A tibble: 63 x 5
##    state           population            response               `%`    no.
##    <chr>           <chr>                 <chr>                <dbl>  <dbl>
##  1 New South Wales Eligible Participants Non-responding        20.5 1.07e6
##  2 New South Wales Eligible Participants Response clear        79.2 4.11e6
##  3 New South Wales Eligible Participants Response not clear(…   0.2 1.10e4
##  4 New South Wales Eligible Participants Total                100   5.19e6
##  5 New South Wales Response clear        No                    42.2 1.74e6
##  6 New South Wales Response clear        Total                100   4.11e6
##  7 New South Wales Response clear        Yes                   57.8 2.37e6
##  8 Victoria        Eligible Participants Non-responding        18.3 7.44e5
##  9 Victoria        Eligible Participants Response clear        81.4 3.31e6
## 10 Victoria        Eligible Participants Response not clear(…   0.3 1.10e4
## # ... with 53 more rows
…
all_tables <-
  bind_rows("Table 1" = table_1, "Table 2" = table_2, .id = "sheet") %>%
  select(sheet, state, territory, population, response, `%`, no.)
all_tables

## # A tibble: 1,176 x 7
##    sheet   state           territory population    response     `%`    no.
##    <chr>   <chr>           <chr>     <chr>         <chr>      <dbl>  <dbl>
##  1 Table 1 New South Wales <NA>      Eligible Par… Non-respo…  20.5 1.07e6
##  2 Table 1 New South Wales <NA>      Eligible Par… Response …  79.2 4.11e6
##  3 Table 1 New South Wales <NA>      Eligible Par… Response …   0.2 1.10e4
##  4 Table 1 New South Wales <NA>      Eligible Par… Total      100   5.19e6
##  5 Table 1 New South Wales <NA>      Response cle… No          42.2 1.74e6
##  6 Table 1 New South Wales <NA>      Response cle… Total      100   4.11e6
##  7 Table 1 New South Wales <NA>      Response cle… Yes         57.8 2.37e6
##  8 Table 1 Victoria        <NA>      Eligible Par… Non-respo…  18.3 7.44e5
##  9 Table 1 Victoria        <NA>      Eligible Par… Response …  81.4 3.31e6
## 10 Table 1 Victoria        <NA>      Eligible Par… Response …   0.3 1.10e4
## # ... with 1,166 more rows
