3.1 Simple unpivoting | Spreadsheet Munging Strategies
…
Here we have a pivot table with two rows of column headers. The first row of
headers is left-aligned, so "Female" applies to the first two columns of data,
and "Male" applies to the next two. The second row of headers has a header in
every column.

path <- system.file("extdata", "worked-examples.xlsx", package = "unpivotr")
all_cells <-
  xlsx_cells(path, sheets = "pivot-annotations") %>%
  dplyr::filter(col >= 4, !is_blank) %>% # Ignore the row headers in this example
  select(row, col, data_type, character, numeric)
all_cells

## # A tibble: 22 x 5
##      row   col data_type character numeric
##    <int> <int> <chr>     <chr>       <dbl>
##  1     2     4 character Female         NA
##  2     2     6 character Male           NA
##  3     3     4 character Matilda        NA
##  4     3     5 character Olivia         NA
##  5     3     6 character Nicholas       NA
##  6     3     7 character Paul           NA
##  7     4     4 numeric   <NA>            1
##  8     4     5 numeric   <NA>            2
##  9     4     6 numeric   <NA>            3
## 10     4     7 numeric   <NA>            0
## # … with 12 more rows
…
There are no new techniques are used, just more directions: "left" for headers
directly to the left of the data cells, and "left-up" for headers left-then-up
from the data cells.

path <- system.file("extdata", "worked-examples.xlsx", package = "unpivotr")
all_cells <-
  xlsx_cells(path, sheets = "pivot-annotations") %>%
  dplyr::filter(!is_blank) %>%
  select(row, col, data_type, character, numeric) %>%
  print()

## # A tibble: 28 x 5
##      row   col data_type character  numeric
##    <int> <int> <chr>     <chr>        <dbl>
##  1     2     4 character Female          NA
##  2     2     6 character Male            NA
##  3     3     4 character Matilda         NA
##  4     3     5 character Olivia          NA
##  5     3     6 character Nicholas        NA
##  6     3     7 character Paul            NA
##  7     4     2 character Humanities      NA
##  8     4     3 character Classics        NA
##  9     4     4 numeric   <NA>             1
## 10     4     5 numeric   <NA>             2
## # … with 18 more rows
…
Unpivot the multiple rows/columns of headers, as above, but keep the row
and col of each data cell.

Collect the row, col and formatting of each data cell.

Join the data to the formatting by the row and col.

path <- system.file("extdata", "worked-examples.xlsx", package = "unpivotr")
all_cells <-
  xlsx_cells(path, sheets = "pivot-annotations") %>%
  dplyr::filter(!is_blank) %>%
  select(row, col, data_type, character, numeric) %>%
  print()

## # A tibble: 28 x 5
##      row   col data_type character  numeric
##    <int> <int> <chr>     <chr>        <dbl>
##  1     2     4 character Female          NA
##  2     2     6 character Male            NA
##  3     3     4 character Matilda         NA
##  4     3     5 character Olivia          NA
##  5     3     6 character Nicholas        NA
##  6     3     7 character Paul            NA
##  7     4     2 character Humanities      NA
##  8     4     3 character Classics        NA
##  9     4     4 numeric   <NA>             1
## 10     4     5 numeric   <NA>             2
## # … with 18 more rows
…
red <- formats$local$font$color$rgb[red_cell_format_id]
red

## [1] "FFFF0000"

Now we use behead_if(), filtering out cells with the format IDs of red or
italic cells.

cells <-
  xlsx_cells(path, sheets = "pivot-notes") %>%
  dplyr::filter(!is_blank) %>%
  select(row, col, data_type, character, numeric, local_format_id) %>%
  print()

## # A tibble: 31 x 6
##      row   col data_type character  numeric local_format_id
##    <int> <int> <chr>     <chr>        <dbl>           <int>
##  1     2     4 character Female          NA              18
##  2     2     6 character Male            NA              18
##  3     2     7 character 0 = absent      NA              39
##  4     3     4 character Matilda         NA              20
##  5     3     5 character Olivia          NA              21
##  6     3     6 character Nicholas        NA              20
##  7     3     7 character Paul            NA              21
##  8     4     2 character Humanities      NA              18
##  9     4     3 character Classics        NA              19
## 10     4     4 numeric   <NA>             1              33
## # … with 21 more rows
…
