3.2 Complex unpivoting | Spreadsheet Munging Strategies
…
The first stage, identifying header vs data cells, is simply filtering.

path <- system.file("extdata", "worked-examples.xlsx", package = "unpivotr")
all_cells <-
  xlsx_cells(path, sheets = "pivot-annotations") %>%
  dplyr::filter(col >= 4, !is_blank) %>% # Ignore the row headers in this example
  select(row, col, data_type, character, numeric) %>%
  print()

## # A tibble: 22 x 5
##      row   col data_type character numeric
##    <int> <int> <chr>     <chr>       <dbl>
##  1     2     4 character Female         NA
##  2     2     6 character Male           NA
##  3     3     4 character Matilda        NA
##  4     3     5 character Olivia         NA
##  5     3     6 character Nicholas       NA
##  6     3     7 character Paul           NA
##  7     4     4 numeric   <NA>            1
##  8     4     5 numeric   <NA>            2
##  9     4     6 numeric   <NA>            3
## 10     4     7 numeric   <NA>            0
## # … with 12 more rows
…
In this example, the table has no column headers, only row headers. This is
artificial here, but sometimes table are deliberately laid out in transpose
form: the first column contains the headers, and the data extends in columns
from left to right instead of from top to bottom.

path <- system.file("extdata", "worked-examples.xlsx", package = "unpivotr")
all_cells <-
  xlsx_cells(path, sheets = "pivot-annotations") %>%
  dplyr::filter(row >= 3, !is_blank) %>% # Ignore the column headers in this example
  select(row, col, data_type, character, numeric) %>%
  print()

## # A tibble: 26 x 5
##      row   col data_type character  numeric
##    <int> <int> <chr>     <chr>        <dbl>
##  1     3     4 character Matilda         NA
##  2     3     5 character Olivia          NA
##  3     3     6 character Nicholas        NA
##  4     3     7 character Paul            NA
##  5     4     2 character Humanities      NA
##  6     4     3 character Classics        NA
##  7     4     4 numeric   <NA>             1
##  8     4     5 numeric   <NA>             2
##  9     4     6 numeric   <NA>             3
## 10     4     7 numeric   <NA>             0
## # … with 16 more rows
…
This is a combination of the previous two sections. No new techniques are used.

Identify which cells are headers, and which are data

State how the data cells relate to the header cells.

path <- system.file("extdata", "worked-examples.xlsx", package = "unpivotr")
all_cells <-
  xlsx_cells(path, sheets = "pivot-annotations") %>%
  dplyr::filter(!is_blank) %>%
  select(row, col, data_type, character, numeric) %>%
  print()

## # A tibble: 28 x 5
##      row   col data_type character  numeric
##    <int> <int> <chr>     <chr>        <dbl>
##  1     2     4 character Female          NA
##  2     2     6 character Male            NA
##  3     3     4 character Matilda         NA
##  4     3     5 character Olivia          NA
##  5     3     6 character Nicholas        NA
##  6     3     7 character Paul            NA
##  7     4     2 character Humanities      NA
##  8     4     3 character Classics        NA
##  9     4     4 numeric   <NA>             1
## 10     4     5 numeric   <NA>             2
## # … with 18 more rows
…
data_cells %>%
  enhead(first_header_row, "up-left") %>%
  enhead(second_header_row, "up") %>%
  enhead(first_header_col, "left-up") %>%
  enhead(second_header_col, "left") %>%
  select(-row, -col)

## # A tibble: 56 x 5
##    score sex    name    field      subject   
##    <dbl> <chr>  <chr>   <chr>      <chr>     
##  1     3 Female Leah    Humanities Classics  
##  2     1 Female Matilda Humanities Classics  
##  3     2 Female Olivia  Humanities Classics  
##  4     8 Female Leah    Humanities History   
##  5     3 Female Matilda Humanities History   
##  6     4 Female Olivia  Humanities History   
##  7     1 Female Leah    Humanities Literature
##  8     1 Female Matilda Humanities Literature
##  9     9 Female Olivia  Humanities Literature
## 10     5 Female Leah    Humanities Philosophy
## # … with 46 more rows
…
Unpivot the multiple rows/columns of headers, as above, but keep the row
and col of each data cell.

Collect the row, col and formatting of each data cell.

Join the data to the formatting by the row and col.

path <- system.file("extdata", "worked-examples.xlsx", package = "unpivotr")
all_cells <-
  xlsx_cells(path, sheets = "pivot-annotations") %>%
  dplyr::filter(!is_blank) %>%
  select(row, col, data_type, character, numeric) %>%
  print()

## # A tibble: 28 x 5
##      row   col data_type character  numeric
##    <int> <int> <chr>     <chr>        <dbl>
##  1     2     4 character Female          NA
##  2     2     6 character Male            NA
##  3     3     4 character Matilda         NA
##  4     3     5 character Olivia          NA
##  5     3     6 character Nicholas        NA
##  6     3     7 character Paul            NA
##  7     4     2 character Humanities      NA
##  8     4     3 character Classics        NA
##  9     4     4 numeric   <NA>             1
## 10     4     5 numeric   <NA>             2
## # … with 18 more rows
…
## [1] 12 13 14 40 41

Now we select the headers, filtering out cells with the format IDs of red or
italic cells.

all_cells <-
  xlsx_cells(path, sheets = "pivot-notes") %>%
  dplyr::filter(!is_blank) %>%
  select(row, col, character, numeric, local_format_id) %>%
  print()

## # A tibble: 31 x 5
##      row   col character  numeric local_format_id
##    <int> <int> <chr>        <dbl>           <int>
##  1     2     4 Female          NA              18
##  2     2     6 Male            NA              18
##  3     2     7 0 = absent      NA              39
##  4     3     4 Matilda         NA              20
##  5     3     5 Olivia          NA              21
##  6     3     6 Nicholas        NA              20
##  7     3     7 Paul            NA              21
##  8     4     2 Humanities      NA              18
##  9     4     3 Classics        NA              19
## 10     4     4 <NA>             1              33
## # … with 21 more rows
…
Repetitions can simply be ignored. Select one of the sets of headers, and use
it for all the data. In this example, the data cells are easy to distinguish
from the headers mixed in among them, because only the data cells have the
numeric data type.

path <- system.file("extdata", "worked-examples.xlsx", package = "unpivotr")
all_cells <-
  xlsx_cells(path, sheets = "pivot-repeated-headers") %>%
  dplyr::filter(!is_blank) %>%
  select(row, col, data_type, character, numeric) %>%
  print()

## # A tibble: 80 x 5
##      row   col data_type character numeric
##    <int> <int> <chr>     <chr>       <dbl>
##  1     2     4 character Term 1         NA
##  2     2     5 character Term 2         NA
##  3     2     6 character Term 3         NA
##  4     3     2 character Classics       NA
##  5     3     3 character Matilda        NA
##  6     3     4 numeric   <NA>            1
##  7     3     5 numeric   <NA>            8
##  8     3     6 numeric   <NA>            7
##  9     4     3 character Nicholas       NA
## 10     4     4 numeric   <NA>            3
## # … with 70 more rows
…
# The data cells are distinguished from the 'term' headers by their data type --
# the data cells are numeric, whereas the term headers are character.
data_cells <-
  dplyr::filter(all_cells, data_type == "numeric") %>%
  select(row, col, score = numeric)
  # The data is exam scores in certain subjects, so give the data that title.
  # The data is numeric, so select only that 'value'.  If some of the data was
  # also text or true/false, then you would select the `character` and `logical`
  # columns as well as `numeric`
data_cells

## # A tibble: 48 x 3
##      row   col score
##    <int> <int> <dbl>
##  1     3     4     1
##  2     3     5     8
##  3     3     6     7
##  4     4     4     3
##  5     4     5     1
##  6     4     6     2
##  7     5     4     4
##  8     5     5     0
##  9     5     6     1
## 10     6     4     2
## # … with 38 more rows

data_cells %>%
  enhead(term, "up") %>%
  enhead(subject, "up-left") %>%
  enhead(name, "left") %>%
  select(-row, -col)

## # A tibble: 48 x 4
##    score term   subject  name    
##    <dbl> <chr>  <chr>    <chr>   
##  1     1 Term 1 Classics Matilda 
##  2     8 Term 2 Classics Matilda 
##  3     7 Term 3 Classics Matilda 
##  4     3 Term 1 Classics Nicholas
##  5     1 Term 2 Classics Nicholas
##  6     2 Term 3 Classics Nicholas
##  7     4 Term 1 Classics Olivia  
##  8     0 Term 2 Classics Olivia  
##  9     1 Term 3 Classics Olivia  
## 10     2 Term 1 Classics Paul    
## # … with 38 more rows
…
The way to handle it is to pretend that it is a row header, and use the
"left-up" direction as normal.

path <- system.file("extdata", "worked-examples.xlsx", package = "unpivotr")
all_cells <-
  xlsx_cells(path, sheets = "pivot-header-within-data") %>%
  dplyr::filter(!is_blank) %>%
  select(row, col, data_type, character, numeric, local_format_id) %>%
  print()

## # A tibble: 80 x 6
##      row   col data_type character numeric local_format_id
##    <int> <int> <chr>     <chr>       <dbl>           <int>
##  1     2     3 character Classics       NA               2
##  2     3     3 character Term 1         NA              20
##  3     3     4 character Term 2         NA              37
##  4     3     5 character Term 3         NA              21
##  5     4     2 character Matilda        NA              18
##  6     4     3 numeric   <NA>            4              18
##  7     4     4 numeric   <NA>            0              27
##  8     4     5 numeric   <NA>            7              19
##  9     5     2 character Nicholas       NA              20
## 10     5     3 numeric   <NA>            4              20
## # … with 70 more rows

# View the cells in their original positions on the spreadsheet
rectify(all_cells)

## # A tibble: 24 x 5
##    `row/col` `2(B)`   `3(C)`   `4(D)` `5(E)`
##        <int> <chr>    <chr>    <chr>  <chr> 
##  1         2 <NA>     Classics <NA>   <NA>  
##  2         3 <NA>     Term 1   Term 2 Term 3
##  3         4 Matilda  4        0      7     
##  4         5 Nicholas 4        6      2     
##  5         6 Olivia   9        9      9     
##  6         7 Paul     5        0      0     
##  7         8 <NA>     History  <NA>   <NA>  
##  8         9 <NA>     Term 1   Term 2 Term 3
##  9        10 Matilda  0        4      2     
## 10        11 Nicholas 2        5      2     
## # … with 14 more rows
…
# The data cells are distinguished from the 'subject' headers by their data
# type -- the data cells are numeric, whereas the term headers are character.
data_cells <-
  dplyr::filter(all_cells, data_type == "numeric") %>%
  select(row, col, score = numeric)
  # The data is exam scores in certain subjects, so give the data that title.
  # The data is numeric, so select only that 'value'.  If some of the data was
  # also text or true/false, then you would select the `character` and `logical`
  # columns as well as `numeric`
data_cells

## # A tibble: 48 x 3
##      row   col score
##    <int> <int> <dbl>
##  1     4     3     4
##  2     4     4     0
##  3     4     5     7
##  4     5     3     4
##  5     5     4     6
##  6     5     5     2
##  7     6     3     9
##  8     6     4     9
##  9     6     5     9
## 10     7     3     5
## # … with 38 more rows

data_cells %>%
  enhead(subject, "left-up") %>%
  enhead(term, "up") %>%
  enhead(name, "left") %>%
  select(-row, -col)

## # A tibble: 48 x 4
##    score subject  term   name    
##    <dbl> <chr>    <chr>  <chr>   
##  1     4 Classics Term 1 Matilda 
##  2     0 Classics Term 2 Matilda 
##  3     7 Classics Term 3 Matilda 
##  4     4 Classics Term 1 Nicholas
##  5     6 Classics Term 2 Nicholas
##  6     2 Classics Term 3 Nicholas
##  7     9 Classics Term 1 Olivia  
##  8     9 Classics Term 2 Olivia  
##  9     9 Classics Term 3 Olivia  
## 10     5 Classics Term 1 Paul    
## # … with 38 more rows
