Spreadsheet Munging Strategies
…
Compare that with the long set of cells, one per row, that tidyxl gives. (Only
a few properties of each cell are shown, to make it easier to read).

cells <- xlsx_cells(path, sheets = "pivot-annotations")
select(cells, row, col, data_type, character, numeric) %>%
  print(cells, n = 20)

## # A tibble: 36 x 5
##      row   col data_type character  numeric
##    <int> <int> <chr>     <chr>        <dbl>
##  1     2     2 blank     <NA>            NA
##  2     2     3 blank     <NA>            NA
##  3     2     4 character Female          NA
##  4     2     5 blank     <NA>            NA
##  5     2     6 character Male            NA
##  6     2     7 blank     <NA>            NA
##  7     3     2 blank     <NA>            NA
##  8     3     3 blank     <NA>            NA
##  9     3     4 character Matilda         NA
## 10     3     5 character Olivia          NA
## 11     3     6 character Nicholas        NA
## 12     3     7 character Paul            NA
## 13     4     2 character Humanities      NA
## 14     4     3 character Classics        NA
## 15     4     4 numeric   <NA>             1
## 16     4     5 numeric   <NA>             2
## 17     4     6 numeric   <NA>             3
## 18     4     7 numeric   <NA>             0
## 19     5     2 blank     <NA>            NA
## 20     5     3 character History         NA
## # ... with 16 more rows

A similar result is obtained via unpivotr::as_cells().

original <- read_excel(path, sheet = "pivot-annotations", col_names = FALSE)
as_cells(original) %>%
  arrange(row, col) %>%
  print(n = 20)

## # A tibble: 36 x 4
##      row   col data_type chr       
##    <int> <int> <chr>     <chr>     
##  1     1     1 chr       <NA>      
##  2     1     2 chr       <NA>      
##  3     1     3 chr       Female    
##  4     1     4 chr       <NA>      
##  5     1     5 chr       Male      
##  6     1     6 chr       <NA>      
##  7     2     1 chr       <NA>      
##  8     2     2 chr       <NA>      
##  9     2     3 chr       Matilda   
## 10     2     4 chr       Olivia    
## 11     2     5 chr       Nicholas  
## 12     2     6 chr       Paul      
## 13     3     1 chr       Humanities
## 14     3     2 chr       Classics  
## 15     3     3 chr       1         
## 16     3     4 chr       2         
## 17     3     5 chr       3         
## 18     3     6 chr       0         
## 19     4     1 chr       <NA>      
## 20     4     2 chr       History   
## # ... with 16 more rows
…
Here we have a pivot table with two rows of column headers. The first row of
headers is left-aligned, so "Female" applies to the first two columns of data,
and "Male" applies to the next two. The second row of headers has a header in
every column.

path <- system.file("extdata", "worked-examples.xlsx", package = "unpivotr")
all_cells <-
  xlsx_cells(path, sheets = "pivot-annotations") %>%
  dplyr::filter(col >= 4, !is_blank) %>% # Ignore the row headers in this example
  select(row, col, data_type, character, numeric)
all_cells

## # A tibble: 22 x 5
##      row   col data_type character numeric
##    <int> <int> <chr>     <chr>       <dbl>
##  1     2     4 character Female         NA
##  2     2     6 character Male           NA
##  3     3     4 character Matilda        NA
##  4     3     5 character Olivia         NA
##  5     3     6 character Nicholas       NA
##  6     3     7 character Paul           NA
##  7     4     4 numeric   <NA>            1
##  8     4     5 numeric   <NA>            2
##  9     4     6 numeric   <NA>            3
## 10     4     7 numeric   <NA>            0
## # ... with 12 more rows
…
There are no new techniques are used, just more compass directions: "W" for
headers directly to the left of the data cells, and "WNW" for headers
left-and-above the data cells.

path <- system.file("extdata", "worked-examples.xlsx", package = "unpivotr")
all_cells <-
  xlsx_cells(path, sheets = "pivot-annotations") %>%
  dplyr::filter(!is_blank) %>%
  select(row, col, data_type, character, numeric) %>%
  print()

## # A tibble: 28 x 5
##      row   col data_type character  numeric
##    <int> <int> <chr>     <chr>        <dbl>
##  1     2     4 character Female          NA
##  2     2     6 character Male            NA
##  3     3     4 character Matilda         NA
##  4     3     5 character Olivia          NA
##  5     3     6 character Nicholas        NA
##  6     3     7 character Paul            NA
##  7     4     2 character Humanities      NA
##  8     4     3 character Classics        NA
##  9     4     4 numeric   <NA>             1
## 10     4     5 numeric   <NA>             2
## # ... with 18 more rows
…
Unpivot the multiple rows/columns of headers, as above, but keep the row
and col of each data cell.

Collect the row, col and formatting of each data cell.

Join the data to the formatting by the row and col.

path <- system.file("extdata", "worked-examples.xlsx", package = "unpivotr")
all_cells <-
  xlsx_cells(path, sheets = "pivot-annotations") %>%
  dplyr::filter(!is_blank) %>%
  select(row, col, data_type, character, numeric) %>%
  print()

## # A tibble: 28 x 5
##      row   col data_type character  numeric
##    <int> <int> <chr>     <chr>        <dbl>
##  1     2     4 character Female          NA
##  2     2     6 character Male            NA
##  3     3     4 character Matilda         NA
##  4     3     5 character Olivia          NA
##  5     3     6 character Nicholas        NA
##  6     3     7 character Paul            NA
##  7     4     2 character Humanities      NA
##  8     4     3 character Classics        NA
##  9     4     4 numeric   <NA>             1
## 10     4     5 numeric   <NA>             2
## # ... with 18 more rows
…
The first stage, identifying header vs data cells, is simply filtering.

path <- system.file("extdata", "worked-examples.xlsx", package = "unpivotr")
all_cells <-
  xlsx_cells(path, sheets = "pivot-annotations") %>%
  dplyr::filter(col >= 4, !is_blank) %>% # Ignore the row headers in this example
  select(row, col, data_type, character, numeric) %>%
  print()

## # A tibble: 22 x 5
##      row   col data_type character numeric
##    <int> <int> <chr>     <chr>       <dbl>
##  1     2     4 character Female         NA
##  2     2     6 character Male           NA
##  3     3     4 character Matilda        NA
##  4     3     5 character Olivia         NA
##  5     3     6 character Nicholas       NA
##  6     3     7 character Paul           NA
##  7     4     4 numeric   <NA>            1
##  8     4     5 numeric   <NA>            2
##  9     4     6 numeric   <NA>            3
## 10     4     7 numeric   <NA>            0
## # ... with 12 more rows
…
In this example, the table has no column headers, only row headers. This is
artificial here, but sometimes table are deliberately laid out in transpose
form: the first column contains the headers, and the data extends in columns
from left to right instead of from top to bottom.

path <- system.file("extdata", "worked-examples.xlsx", package = "unpivotr")
all_cells <-
  xlsx_cells(path, sheets = "pivot-annotations") %>%
  dplyr::filter(row >= 3, !is_blank) %>% # Ignore the column headers in this example
  select(row, col, data_type, character, numeric) %>%
  print()

## # A tibble: 26 x 5
##      row   col data_type character  numeric
##    <int> <int> <chr>     <chr>        <dbl>
##  1     3     4 character Matilda         NA
##  2     3     5 character Olivia          NA
##  3     3     6 character Nicholas        NA
##  4     3     7 character Paul            NA
##  5     4     2 character Humanities      NA
##  6     4     3 character Classics        NA
##  7     4     4 numeric   <NA>             1
##  8     4     5 numeric   <NA>             2
##  9     4     6 numeric   <NA>             3
## 10     4     7 numeric   <NA>             0
## # ... with 16 more rows
…
This is a combination of the previous two sections. No new techniques are used.

Identify which cells are headers, and which are data

State how the data cells relate to the header cells.

path <- system.file("extdata", "worked-examples.xlsx", package = "unpivotr")
all_cells <-
  xlsx_cells(path, sheets = "pivot-annotations") %>%
  dplyr::filter(!is_blank) %>%
  select(row, col, data_type, character, numeric) %>%
  print()

## # A tibble: 28 x 5
##      row   col data_type character  numeric
##    <int> <int> <chr>     <chr>        <dbl>
##  1     2     4 character Female          NA
##  2     2     6 character Male            NA
##  3     3     4 character Matilda         NA
##  4     3     5 character Olivia          NA
##  5     3     6 character Nicholas        NA
##  6     3     7 character Paul            NA
##  7     4     2 character Humanities      NA
##  8     4     3 character Classics        NA
##  9     4     4 numeric   <NA>             1
## 10     4     5 numeric   <NA>             2
## # ... with 18 more rows
…
data_cells %>%
  enhead(first_header_row, "NNW") %>%
  enhead(second_header_row, "N") %>%
  enhead(first_header_col, "WNW") %>%
  enhead(second_header_col, "W") %>%
  select(-row, -col)

## # A tibble: 56 x 5
##    score sex    name     field      subject 
##    <dbl> <chr>  <chr>    <chr>      <chr>   
##  1     3 Female Leah     Humanities Classics
##  2     1 Female Matilda  Humanities Classics
##  3     2 Female Olivia   Humanities Classics
##  4     4 Male   Lenny    Humanities Classics
##  5     3 Male   Max      Humanities Classics
##  6     3 Male   Nicholas Humanities Classics
##  7     0 Male   Paul     Humanities Classics
##  8     8 Female Leah     Humanities History 
##  9     3 Female Matilda  Humanities History 
## 10     4 Female Olivia   Humanities History 
## # ... with 46 more rows
…
Unpivot the multiple rows/columns of headers, as above, but keep the row
and col of each data cell.

Collect the row, col and formatting of each data cell.

Join the data to the formatting by the row and col.

path <- system.file("extdata", "worked-examples.xlsx", package = "unpivotr")
all_cells <-
  xlsx_cells(path, sheets = "pivot-annotations") %>%
  dplyr::filter(!is_blank) %>%
  select(row, col, data_type, character, numeric) %>%
  print()

## # A tibble: 28 x 5
##      row   col data_type character  numeric
##    <int> <int> <chr>     <chr>        <dbl>
##  1     2     4 character Female          NA
##  2     2     6 character Male            NA
##  3     3     4 character Matilda         NA
##  4     3     5 character Olivia          NA
##  5     3     6 character Nicholas        NA
##  6     3     7 character Paul            NA
##  7     4     2 character Humanities      NA
##  8     4     3 character Classics        NA
##  9     4     4 numeric   <NA>             1
## 10     4     5 numeric   <NA>             2
## # ... with 18 more rows
…
## [1]  4 10 11 18 34

Now we select the headers, filtering out cells with the format IDs of red or
italic cells.

all_cells <-
  xlsx_cells(path, sheets = "pivot-notes") %>%
  dplyr::filter(!is_blank) %>%
  select(row, col, character, numeric, local_format_id) %>%
  print()

## # A tibble: 31 x 5
##      row   col character  numeric local_format_id
##    <int> <int> <chr>        <dbl>           <int>
##  1     2     4 Female          NA              26
##  2     2     6 Male            NA              26
##  3     2     7 0 = absent      NA              23
##  4     3     4 Matilda         NA              28
##  5     3     5 Olivia          NA              29
##  6     3     6 Nicholas        NA              28
##  7     3     7 Paul            NA              29
##  8     4     2 Humanities      NA              26
##  9     4     3 Classics        NA              27
## 10     4     4 <NA>             1              22
## # ... with 21 more rows
…
Repetitions can simply be ignored. Select one of the sets of headers, and use
it for all the data. In this example, the data cells are easy to distinguish
from the headers mixed in among them, because only the data cells have the
numeric data type.

path <- system.file("extdata", "worked-examples.xlsx", package = "unpivotr")
all_cells <-
  xlsx_cells(path, sheets = "pivot-repeated-headers") %>%
  dplyr::filter(!is_blank) %>%
  select(row, col, data_type, character, numeric) %>%
  print()

## # A tibble: 80 x 5
##      row   col data_type character numeric
##    <int> <int> <chr>     <chr>       <dbl>
##  1     2     4 character Term 1         NA
##  2     2     5 character Term 2         NA
##  3     2     6 character Term 3         NA
##  4     3     2 character Classics       NA
##  5     3     3 character Matilda        NA
##  6     3     4 numeric   <NA>            8
##  7     3     5 numeric   <NA>            5
##  8     3     6 numeric   <NA>            7
##  9     4     3 character Nicholas       NA
## 10     4     4 numeric   <NA>            4
## # ... with 70 more rows
…
# The data cells are distinguished from the 'term' headers by their data type --
# the data cells are numeric, whereas the term headers are character.
data_cells <-
  dplyr::filter(all_cells, data_type == "numeric") %>%
  select(row, col, score = numeric)
  # The data is exam scores in certain subjects, so give the data that title.
  # The data is numeric, so select only that 'value'.  If some of the data was
  # also text or true/false, then you would select the `character` and `logical`
  # columns as well as `numeric`
data_cells

## # A tibble: 48 x 3
##      row   col score
##    <int> <int> <dbl>
##  1     3     4     8
##  2     3     5     5
##  3     3     6     7
##  4     4     4     4
##  5     4     5     5
##  6     4     6     7
##  7     5     4     0
##  8     5     5     7
##  9     5     6     3
## 10     6     4     5
## # ... with 38 more rows

data_cells %>%
  enhead(term, "N") %>%
  enhead(subject, "NNW") %>%
  enhead(name, "W") %>%
  select(-row, -col)

## # A tibble: 48 x 4
##    score term   subject  name    
##    <dbl> <chr>  <chr>    <chr>   
##  1     8 Term 1 Classics Matilda 
##  2     5 Term 2 Classics Matilda 
##  3     7 Term 3 Classics Matilda 
##  4     4 Term 1 Classics Nicholas
##  5     5 Term 2 Classics Nicholas
##  6     7 Term 3 Classics Nicholas
##  7     0 Term 1 Classics Olivia  
##  8     7 Term 2 Classics Olivia  
##  9     3 Term 3 Classics Olivia  
## 10     5 Term 1 Classics Paul    
## # ... with 38 more rows
…
The way to handle it is to pretend that it is a row header, and use the
"WNW" direction as normal.

path <- system.file("extdata", "worked-examples.xlsx", package = "unpivotr")
all_cells <-
  xlsx_cells(path, sheets = "pivot-header-within-data") %>%
  dplyr::filter(!is_blank) %>%
  select(row, col, data_type, character, numeric, local_format_id) %>%
  print()

## # A tibble: 80 x 6
##      row   col data_type character numeric local_format_id
##    <int> <int> <chr>     <chr>       <dbl>           <int>
##  1     2     3 character Classics       NA              64
##  2     3     3 character Term 1         NA              28
##  3     3     4 character Term 2         NA              44
##  4     3     5 character Term 3         NA              29
##  5     4     2 character Matilda        NA              26
##  6     4     3 numeric   <NA>            1              26
##  7     4     4 numeric   <NA>            3              48
##  8     4     5 numeric   <NA>            2              27
##  9     5     2 character Nicholas       NA              28
## 10     5     3 numeric   <NA>            8              28
## # ... with 70 more rows

# View the cells in their original positions on the spreadsheet
rectify(all_cells)

## # A tibble: 24 x 5
##    `row/col` `2(B)`   `3(C)`   `4(D)` `5(E)`
##        <int> <chr>    <chr>    <chr>  <chr> 
##  1         2 <NA>     Classics <NA>   <NA>  
##  2         3 <NA>     Term 1   Term 2 Term 3
##  3         4 Matilda  1        3      2     
##  4         5 Nicholas 8        0      6     
##  5         6 Olivia   8        9      6     
##  6         7 Paul     8        8      2     
##  7         8 <NA>     History  <NA>   <NA>  
##  8         9 <NA>     Term 1   Term 2 Term 3
##  9        10 Matilda  5        3      5     
## 10        11 Nicholas 4        7      8     
## # ... with 14 more rows
…
# The data cells are distinguished from the 'subject' headers by their data
# type -- the data cells are numeric, whereas the term headers are character.
data_cells <-
  dplyr::filter(all_cells, data_type == "numeric") %>%
  select(row, col, score = numeric)
  # The data is exam scores in certain subjects, so give the data that title.
  # The data is numeric, so select only that 'value'.  If some of the data was
  # also text or true/false, then you would select the `character` and `logical`
  # columns as well as `numeric`
data_cells

## # A tibble: 48 x 3
##      row   col score
##    <int> <int> <dbl>
##  1     4     3     1
##  2     4     4     3
##  3     4     5     2
##  4     5     3     8
##  5     5     4     0
##  6     5     5     6
##  7     6     3     8
##  8     6     4     9
##  9     6     5     6
## 10     7     3     8
## # ... with 38 more rows

data_cells %>%
  enhead(subject, "WNW") %>%
  enhead(term, "N") %>%
  enhead(name, "W") %>%
  select(-row, -col)

## # A tibble: 48 x 4
##    score subject  term   name    
##    <dbl> <chr>    <chr>  <chr>   
##  1     1 Classics Term 1 Matilda 
##  2     3 Classics Term 2 Matilda 
##  3     2 Classics Term 3 Matilda 
##  4     8 Classics Term 1 Nicholas
##  5     0 Classics Term 2 Nicholas
##  6     6 Classics Term 3 Nicholas
##  7     8 Classics Term 1 Olivia  
##  8     9 Classics Term 2 Olivia  
##  9     6 Classics Term 3 Olivia  
## 10     8 Classics Term 1 Paul    
## # ... with 38 more rows
