Spreadsheet Munging Strategies
…
bold_headers <-
  cells %>%
  dplyr::filter(col == 1L, formats$local$font$bold[local_format_id]) %>%
  select(row, col, bold_header = character)

cells %>%
  behead("NNW", "metric") %>%
  behead("W", "plain-header") %>%
  enhead(bold_headers, "WNW") %>%
  select(row, data_type, numeric, metric, `plain-header`) %>%
  spatter(metric) %>%
  select(-row)

## # A tibble: 21 x 10
##    `plain-header` `% Advanced` `% Needs Improv… `% Proficient`
##    <chr>                 <dbl>            <dbl>          <dbl>
##  1 All Students          0.515           0.0297          0.446
##  2 Economically …        0.333           0.0667          0.567
##  3 Non-Economica…        0.592           0.0141          0.394
##  4 Students w/ D…       NA              NA              NA    
##  5 Non-Disabled          0.565           0.0217          0.413
##  6 ELL                  NA              NA              NA    
##  7 Non-ELL               0.525           0.0202          0.444
##  8 African Amer.…       NA              NA              NA    
##  9 Asian                NA              NA              NA    
## 10 Hispanic/Lati…       NA              NA              NA    
## # ... with 11 more rows, and 6 more variables: `% Proficient or
## #   Higher` <dbl>, `% Warning/ Failing` <dbl>, CPI <dbl>, `Median
## #   SGP` <dbl>, `N Included` <dbl>, `N Included in SGP` <dbl>
…
Download the
file,
modified from an original source provided to the author.

xlsx_cells(smungs::school, "Sheet2") %>%
  select(row, col, address, data_type, character, numeric, is_blank) %>%
  mutate(character = str_trim(character)) %>%
  behead("NNW", "header_1") %>%
  behead("N", "header_2") %>%
  behead("N", "header_3") %>%
  behead("W", "classroom") %>%
  dplyr::filter(!is_blank, !is.na(header_3)) %>%
  arrange(col, row)

## # A tibble: 32 x 11
##      row   col address data_type character numeric is_blank header_1
##    <int> <int> <chr>   <chr>     <chr>       <dbl> <lgl>    <chr>   
##  1     5     4 D5      character 10         NA     FALSE    MCAS Su…
##  2     6     4 D6      character 10         NA     FALSE    MCAS Su…
##  3     7     4 D7      character 10         NA     FALSE    MCAS Su…
##  4     8     4 D8      character 10         NA     FALSE    MCAS Su…
##  5     5     5 E5      character 4          NA     FALSE    MCAS Su…
##  6     6     5 E6      character 8          NA     FALSE    MCAS Su…
##  7     7     5 E7      character 5          NA     FALSE    MCAS Su…
##  8     8     5 E8      character 10         NA     FALSE    MCAS Su…
##  9     5     6 F5      numeric   <NA>        0.342 FALSE    Possibl…
## 10     6     6 F6      numeric   <NA>        0.319 FALSE    Possibl…
## # ... with 22 more rows, and 3 more variables: header_2 <chr>,
## #   header_3 <chr>, classroom <chr>
…
