9.4 Toronto Transit Commission | Spreadsheet Munging Strategies
…
cells %>%
  behead("up", "year", formatters = list(character = str_trim)) %>%
  behead("left-up", "context") %>%
  behead("left", "media", formatters = list(character = str_trim)) %>%
  enhead(fare, "left-up") %>%
  dplyr::filter(!str_detect(media, "TOTAL")) %>%
  separate(year, c("year", "note"), sep = " ", fill = "right") %>%
  select(year, context, fare, media, count = numeric)

## # A tibble: 1,188 x 5
##    year  context fare  media   count
##    <chr> <chr>   <chr> <chr>   <dbl>
##  1 2017  WHO     ADULT TOKENS  76106
##  2 2016  WHO     ADULT TOKENS 102073
##  3 2015  WHO     ADULT TOKENS 110945
##  4 2014  WHO     ADULT TOKENS 111157
##  5 2013  WHO     ADULT TOKENS 112360
##  6 2012  WHO     ADULT TOKENS 117962
##  7 2011  WHO     ADULT TOKENS 124748
##  8 2010  WHO     ADULT TOKENS 120366
##  9 2009  WHO     ADULT TOKENS 114686
## 10 2008  WHO     ADULT TOKENS  94210
## # … with 1,178 more rows
…
ttc <-
  cells %>%
  behead("up", "year") %>%
  behead("left-up", "context") %>%
  behead("left", "media") %>%
  enhead(fare, "left-up") %>%
  dplyr::filter(!str_detect(media, "TOTAL")) %>%
  select(year, context, fare, media, count = numeric)
ttc

## # A tibble: 1,188 x 5
##    year      context fare  media          count
##    <chr>     <chr>   <chr> <chr>          <dbl>
##  1 "2017"    WHO     ADULT "     TOKENS"  76106
##  2 "2016"    WHO     ADULT "     TOKENS" 102073
##  3 " 2015 *" WHO     ADULT "     TOKENS" 110945
##  4 "2014"    WHO     ADULT "     TOKENS" 111157
##  5 "2013"    WHO     ADULT "     TOKENS" 112360
##  6 "2012"    WHO     ADULT "     TOKENS" 117962
##  7 "2011"    WHO     ADULT "     TOKENS" 124748
##  8 "2010"    WHO     ADULT "     TOKENS" 120366
##  9 "2009"    WHO     ADULT "     TOKENS" 114686
## 10 "2008"    WHO     ADULT "     TOKENS"  94210
## # … with 1,178 more rows

There’s a bit more cosmetic cleaning to do. The indentation can be trimmed from
the media and the year headers, and the asterisk removed from the year 2015 *.

ttc %>%
  mutate(year = str_trim(year), media = str_trim(media)) %>%
  separate(year, c("year", "note"), sep = " ", fill = "right") %>%
  select(-note)

## # A tibble: 1,188 x 5
##    year  context fare  media   count
##    <chr> <chr>   <chr> <chr>   <dbl>
##  1 2017  WHO     ADULT TOKENS  76106
##  2 2016  WHO     ADULT TOKENS 102073
##  3 2015  WHO     ADULT TOKENS 110945
##  4 2014  WHO     ADULT TOKENS 111157
##  5 2013  WHO     ADULT TOKENS 112360
##  6 2012  WHO     ADULT TOKENS 117962
##  7 2011  WHO     ADULT TOKENS 124748
##  8 2010  WHO     ADULT TOKENS 120366
##  9 2009  WHO     ADULT TOKENS 114686
## 10 2008  WHO     ADULT TOKENS  94210
## # … with 1,178 more rows
