9.3 US Crime | Spreadsheet Munging Strategies
…
cells %>%
  dplyr::filter(row >= 4L) %>%
  select(row, col, data_type, character, numeric) %>%
  behead("up-left", "crime") %>%
  behead("up", "unit", drop_na = FALSE) %>%
  behead("left-up", "area") %>%
  behead("left", "year") %>%
  behead("left", "population") %>%
  dplyr::filter(year != "Percent change") %>%
  mutate(unit = if_else(unit == "", "Count", unit)) %>%
  select(row, data_type, numeric, unit, area, year, population, crime) %>%
  spatter(unit) %>%
  select(-row)

## # A tibble: 1,320 x 6
##    area         year  population crime                   Count `Rate per  100,0…
##    <chr>        <chr> <chr>      <chr>                   <dbl>             <dbl>
##  1 United Stat… 2015  320896618  Aggravated assault     7.64e5             238. 
##  2 United Stat… 2015  320896618  Burglary               1.59e6             495. 
##  3 United Stat… 2015  320896618  Larceny-theft          5.72e6            1784. 
##  4 United Stat… 2015  320896618  Motor vehicle theft    7.13e5             222. 
##  5 United Stat… 2015  320896618  Murder and  nonneglig… 1.59e4               4.9
##  6 United Stat… 2015  320896618  Property crime         8.02e6            2500. 
##  7 United Stat… 2015  320896618  Rape (legacy definiti… 9.13e4              28.4
##  8 United Stat… 2015  320896618  Rape (revised definit… 1.26e5              39.3
##  9 United Stat… 2015  320896618  Robbery                3.28e5             102. 
## 10 United Stat… 2015  320896618  Violent crime          1.23e6             385. 
## # … with 1,310 more rows
…
divisions <-
  cells %>%
  dplyr::filter(row >= 6L,
                col == 1L,
                data_type == "character",
                !formats$local$font$bold[local_format_id],
                !str_detect(character, "^ {5}")) %>%
  select(row, col, division = character)
divisions

## # A tibble: 21 x 3
##      row   col division          
##    <int> <int> <chr>             
##  1    12     1 New England       
##  2    33     1 Middle Atlantic   
##  3    48     1 East North Central
##  4    66     1 West North Central
##  5    93     1 South Atlantic    
##  6   123     1 East South Central
##  7   138     1 West South Central
##  8   156     1 Mountain          
##  9   183     1 Pacific           
## 10   201     1 Puerto Rico       
## # … with 11 more rows

states <-
  cells %>%
  dplyr::filter(row >= 6L,
                col == 1L,
                data_type == "character") %>%
  mutate(character = if_else(str_detect(character, "^ {5}"),
                             str_trim(character),
                             "Total")) %>%
  select(row, col, state = character)
states

## # A tibble: 77 x 3
##      row   col state        
##    <int> <int> <chr>        
##  1     6     1 Total        
##  2     9     1 Total        
##  3    12     1 Total        
##  4    15     1 Connecticut  
##  5    18     1 Maine        
##  6    21     1 Massachusetts
##  7    24     1 New Hampshire
##  8    27     1 Rhode Island 
##  9    30     1 Vermont      
## 10    33     1 Total        
## # … with 67 more rows
cells %>%
  dplyr::filter(row >= 5L, col >= 2L) %>%
  select(row, col, data_type, character, numeric) %>%
  behead("up", "unit") %>%
  behead("left", "year") %>%
  behead("left", "population") %>%
  enhead(categories, "up-left") %>%
  enhead(crimes, "up-left") %>%
  enhead(regions, "left-up") %>%
  enhead(divisions, "left-up", drop = FALSE) %>%
  enhead(states, "left-up", drop = FALSE) %>%
  dplyr::filter(year != "Percent change") %>%
  select(value = numeric, category, crime, region, division, state, year, population)

## # A tibble: 2,640 x 8
##      value category   crime             region  division  state year  population
##      <dbl> <chr>      <chr>             <chr>   <chr>     <chr> <chr> <chr>     
##  1 42121   Violent c… Total             Northe… New Engl… Total 2015  14710229  
##  2   286.  Violent c… Total             Northe… New Engl… Total 2015  14710229  
##  3 41598   Violent c… Total             Northe… New Engl… Total 2016  14735525  
##  4   282.  Violent c… Total             Northe… New Engl… Total 2016  14735525  
##  5   326   Violent c… Murder and  nonn… Northe… New Engl… Total 2015  14710229  
##  6     2.2 Violent c… Murder and  nonn… Northe… New Engl… Total 2015  14710229  
##  7   292   Violent c… Murder and  nonn… Northe… New Engl… Total 2016  14735525  
##  8     2   Violent c… Murder and  nonn… Northe… New Engl… Total 2016  14735525  
##  9  4602   Violent c… Rape (revised de… Northe… New Engl… Total 2015  14710229  
## 10    31.3 Violent c… Rape (revised de… Northe… New Engl… Total 2015  14710229  
## # … with 2,630 more rows
…
left_join(population, crime)

## Joining, by = c("state", "area")

## # A tibble: 1,480 x 7
##    state  area        `Area actually r… Population crime        Actual Estimated
##    <chr>  <chr>                   <dbl>      <dbl> <chr>         <dbl>     <dbl>
##  1 ALABA… Cities out…             0.966     520422 Aggravated… 2.84e+3      2914
##  2 ALABA… Cities out…             0.966     520422 Burglary    4.17e+3      4275
##  3 ALABA… Cities out…             0.966     520422 Larceny- t… 1.43e+4     14641
##  4 ALABA… Cities out…             0.966     520422 Motor  veh… 1.34e+3      1375
##  5 ALABA… Cities out…             0.966     520422 Murder and… 4.10e+1        42
##  6 ALABA… Cities out…             0.966     520422 Population  9.66e-1         1
##  7 ALABA… Cities out…             0.966     520422 Property  … 1.98e+4     20291
##  8 ALABA… Cities out…             0.966     520422 Rape (lega… 1.87e+2       193
##  9 ALABA… Cities out…             0.966     520422 Rape (revi… 2.63e+2       269
## 10 ALABA… Cities out…             0.966     520422 Robbery     4.10e+2       421
## # … with 1,470 more rows
